EESchema Schematic File Version 4
LIBS:LaserTrigger-cache
EELAYER 26 0
EELAYER END
$Descr A 11000 8500
encoding utf-8
Sheet 1 1
Title "Laser Trigger"
Date "2021-07-24"
Rev "1.0"
Comp "(c)2021 Eugene Newall-Lockett"
Comment1 "Arduino/AtTiny24 based project for a low-cost Assistive Tech laser beam switch device."
Comment2 "https://gitlab.com/ChiweenieDijon/at-laser-switch"
Comment3 ""
Comment4 ""
$EndDescr
$Comp
L Regulator_Linear:LM78L05_TO92 U2
U 1 1 60D2A0DB
P 4800 1050
F 0 "U2" H 4800 1292 50  0000 C CNN
F 1 "LM78L05" H 4800 1201 50  0000 C CNN
F 2 "Package_TO_SOT_THT:TO-92_HandSolder" H 4800 1275 50  0001 C CIN
F 3 "http://www.fairchildsemi.com/ds/LM/LM78L05A.pdf" H 4800 1000 50  0001 C CNN
F 4 "51182" H 4800 1050 50  0001 C CNN "Jameco"
	1    4800 1050
	1    0    0    -1  
$EndComp
$Comp
L Device:C C2
U 1 1 60D2A53A
P 5300 1200
F 0 "C2" H 5415 1246 50  0000 L CNN
F 1 ".01uf" H 5415 1155 50  0000 L CNN
F 2 "Capacitor_THT:C_Disc_D4.3mm_W1.9mm_P5.00mm" H 5338 1050 50  0001 C CNN
F 3 "~" H 5300 1200 50  0001 C CNN
F 4 "81543" H 5300 1200 50  0001 C CNN "Jameco"
	1    5300 1200
	1    0    0    -1  
$EndComp
$Comp
L Device:C C1
U 1 1 60D2A55A
P 4250 1200
F 0 "C1" H 4050 1200 50  0000 L CNN
F 1 ".33uF" H 4000 1100 50  0000 L CNN
F 2 "Capacitor_THT:C_Disc_D4.3mm_W1.9mm_P5.00mm" H 4288 1050 50  0001 C CNN
F 3 "~" H 4250 1200 50  0001 C CNN
F 4 "2080340" H 4250 1200 50  0001 C CNN "Jameco"
	1    4250 1200
	1    0    0    -1  
$EndComp
$Comp
L Connector_Generic:Conn_01x02 J3
U 1 1 60D2A80C
P 2700 5000
F 0 "J3" H 2620 5217 50  0000 C CNN
F 1 "laser" H 2620 5126 50  0000 C CNN
F 2 "Connector_Molex:Molex_KK-254_AE-6410-02A_1x02_P2.54mm_Vertical" H 2700 5000 50  0001 C CNN
F 3 "~" H 2700 5000 50  0001 C CNN
F 4 "232266" H 2700 5000 50  0001 C CNN "Jameco"
	1    2700 5000
	-1   0    0    -1  
$EndComp
Connection ~ 4250 1050
Wire Wire Line
	4250 1500 4250 1350
Wire Wire Line
	4250 1500 4800 1500
Wire Wire Line
	4800 1500 4800 1350
Connection ~ 4250 1500
Wire Wire Line
	5300 1500 5300 1350
Connection ~ 4800 1500
Wire Wire Line
	4800 1500 5300 1500
Wire Wire Line
	4800 1650 4800 1500
Wire Wire Line
	5100 1050 5300 1050
$Comp
L Device:R_PHOTO R13
U 1 1 60D2B42B
P 3000 3200
F 0 "R13" H 3070 3246 50  0000 L CNN
F 1 "15-60k" H 3070 3155 50  0000 L CNN
F 2 "OptoDevice:R_LDR_7x6mm_P5.1mm_Vertical" V 3050 2950 50  0001 L CNN
F 3 "~" H 3000 3150 50  0001 C CNN
F 4 "202438" H 3000 3200 50  0001 C CNN "Jameco"
	1    3000 3200
	1    0    0    -1  
$EndComp
$Comp
L Device:R R8
U 1 1 60D2B50F
P 6100 5600
F 0 "R8" H 6030 5554 50  0000 R CNN
F 1 "10k" H 6030 5645 50  0000 R CNN
F 2 "Resistor_THT:R_Box_L13.0mm_W4.0mm_P9.00mm" V 6030 5600 50  0001 C CNN
F 3 "~" H 6100 5600 50  0001 C CNN
	1    6100 5600
	-1   0    0    1   
$EndComp
$Comp
L Device:R R6
U 1 1 60D2B6F8
P 7600 3150
F 0 "R6" V 7393 3150 50  0000 C CNN
F 1 "1k" V 7484 3150 50  0000 C CNN
F 2 "Resistor_THT:R_Box_L13.0mm_W4.0mm_P9.00mm" V 7530 3150 50  0001 C CNN
F 3 "~" H 7600 3150 50  0001 C CNN
	1    7600 3150
	0    1    1    0   
$EndComp
$Comp
L Device:R R9
U 1 1 60D2B774
P 3000 2850
F 0 "R9" H 2930 2804 50  0000 R CNN
F 1 "10k" H 2930 2895 50  0000 R CNN
F 2 "Resistor_THT:R_Box_L13.0mm_W4.0mm_P9.00mm" V 2930 2850 50  0001 C CNN
F 3 "~" H 3000 2850 50  0001 C CNN
	1    3000 2850
	-1   0    0    1   
$EndComp
$Comp
L Device:R R7
U 1 1 60D2B7AA
P 3750 5350
F 0 "R7" V 3543 5350 50  0000 C CNN
F 1 "1k" V 3634 5350 50  0000 C CNN
F 2 "Resistor_THT:R_Box_L13.0mm_W4.0mm_P9.00mm" V 3680 5350 50  0001 C CNN
F 3 "~" H 3750 5350 50  0001 C CNN
	1    3750 5350
	0    1    1    0   
$EndComp
$Comp
L Transistor_BJT:2N3904 Q1
U 1 1 60D2B904
P 8050 3150
F 0 "Q1" H 8241 3196 50  0000 L CNN
F 1 "2N3904" H 8241 3105 50  0000 L CNN
F 2 "Package_TO_SOT_THT:TO-92_HandSolder" H 8250 3075 50  0001 L CIN
F 3 "https://www.fairchildsemi.com/datasheets/2N/2N3904.pdf" H 8050 3150 50  0001 L CNN
F 4 "38359" H 8050 3150 50  0001 C CNN "Jameco"
	1    8050 3150
	1    0    0    -1  
$EndComp
$Comp
L power:+5V #PWR0103
U 1 1 60D34468
P 5300 1050
F 0 "#PWR0103" H 5300 900 50  0001 C CNN
F 1 "+5V" H 5315 1223 50  0000 C CNN
F 2 "" H 5300 1050 50  0001 C CNN
F 3 "" H 5300 1050 50  0001 C CNN
	1    5300 1050
	1    0    0    -1  
$EndComp
Connection ~ 5300 1050
$Comp
L power:+5V #PWR0104
U 1 1 60D348FA
P 5450 2700
F 0 "#PWR0104" H 5450 2550 50  0001 C CNN
F 1 "+5V" H 5465 2873 50  0000 C CNN
F 2 "" H 5450 2700 50  0001 C CNN
F 3 "" H 5450 2700 50  0001 C CNN
	1    5450 2700
	1    0    0    -1  
$EndComp
$Comp
L Device:LED_ALT D1
U 1 1 60D34A26
P 8550 4500
F 0 "D1" H 8600 4400 50  0000 R CNN
F 1 "LED_ALT" H 8541 4625 50  0001 C CNN
F 2 "LED_THT:LED_D3.0mm" H 8550 4500 50  0001 C CNN
F 3 "~" H 8550 4500 50  0001 C CNN
	1    8550 4500
	-1   0    0    1   
$EndComp
$Comp
L Device:LED_ALT D2
U 1 1 60D34BF8
P 8550 5100
F 0 "D2" H 8600 5000 50  0000 R CNN
F 1 "LED_ALT" H 8542 5225 50  0001 C CNN
F 2 "LED_THT:LED_D3.0mm" H 8550 5100 50  0001 C CNN
F 3 "~" H 8550 5100 50  0001 C CNN
	1    8550 5100
	-1   0    0    1   
$EndComp
$Comp
L Device:LED_ALT D3
U 1 1 60D34C4C
P 8550 5700
F 0 "D3" H 8550 5600 50  0000 C CNN
F 1 "LED_ALT" H 8541 5825 50  0001 C CNN
F 2 "LED_THT:LED_D3.0mm" H 8550 5700 50  0001 C CNN
F 3 "~" H 8550 5700 50  0001 C CNN
	1    8550 5700
	-1   0    0    1   
$EndComp
$Comp
L Transistor_BJT:2N3904 Q2
U 1 1 60D35C76
P 3350 5350
F 0 "Q2" H 3541 5396 50  0000 L CNN
F 1 "2N3904" H 3541 5305 50  0000 L CNN
F 2 "Package_TO_SOT_THT:TO-92_HandSolder" H 3550 5275 50  0001 L CIN
F 3 "https://www.fairchildsemi.com/datasheets/2N/2N3904.pdf" H 3350 5350 50  0001 L CNN
F 4 "38359" H 3350 5350 50  0001 C CNN "Jameco"
	1    3350 5350
	-1   0    0    -1  
$EndComp
Wire Wire Line
	2900 5100 3250 5100
$Comp
L power:+5V #PWR0106
U 1 1 60D36309
P 3250 4550
F 0 "#PWR0106" H 3250 4400 50  0001 C CNN
F 1 "+5V" H 3265 4723 50  0000 C CNN
F 2 "" H 3250 4550 50  0001 C CNN
F 3 "" H 3250 4550 50  0001 C CNN
	1    3250 4550
	1    0    0    -1  
$EndComp
Wire Wire Line
	3250 5000 2900 5000
$Comp
L power:+5V #PWR0107
U 1 1 60D3CEC0
P 3000 2700
F 0 "#PWR0107" H 3000 2550 50  0001 C CNN
F 1 "+5V" H 3015 2873 50  0000 C CNN
F 2 "" H 3000 2700 50  0001 C CNN
F 3 "" H 3000 2700 50  0001 C CNN
	1    3000 2700
	1    0    0    -1  
$EndComp
$Comp
L Switch:SW_Push SW1
U 1 1 60D3D311
P 6400 5450
F 0 "SW1" H 6400 5350 50  0000 C CNN
F 1 "SW_Push" H 6400 5350 50  0001 C CNN
F 2 "Button_Switch_THT:SW_PUSH_6mm" H 6400 5650 50  0001 C CNN
F 3 "" H 6400 5650 50  0001 C CNN
F 4 "149948" H 6400 5450 50  0001 C CNN "Jameco"
	1    6400 5450
	1    0    0    -1  
$EndComp
$Comp
L power:+5V #PWR0110
U 1 1 60D3E25E
P 6600 5300
F 0 "#PWR0110" H 6600 5150 50  0001 C CNN
F 1 "+5V" H 6615 5473 50  0000 C CNN
F 2 "" H 6600 5300 50  0001 C CNN
F 3 "" H 6600 5300 50  0001 C CNN
	1    6600 5300
	1    0    0    -1  
$EndComp
Wire Wire Line
	3000 3350 3000 3450
Wire Wire Line
	3000 3000 3000 3050
Text GLabel 3400 3050 2    50   Input ~ 0
Photo
Text GLabel 5950 5450 0    50   Input ~ 0
Button
Wire Wire Line
	5950 5450 6100 5450
Connection ~ 6100 5450
Wire Wire Line
	6100 5450 6200 5450
Wire Wire Line
	3000 3050 3400 3050
Connection ~ 3000 3050
Text Label 3200 5000 2    50   ~ 0
laser+
$Comp
L gnl-symbols:HE721C0510 RLY1
U 1 1 60D55EB0
P 9000 2650
F 0 "RLY1" V 8435 2650 50  0000 C CNN
F 1 "HE721C0510" V 8526 2650 50  0000 C CNN
F 2 "Package_DIP:DIP-14_W7.62mm_LongPads" H 8900 3100 50  0001 C CNN
F 3 "https://www.jameco.com/Jameco/Products/ProdDS/2276919.pdf" H 9200 3450 50  0001 C CNN
F 4 "2276919" H 8950 3550 50  0001 C CNN "Jameco"
	1    9000 2650
	0    1    1    0   
$EndComp
$Comp
L Connector:AudioJack2 #J7
U 1 1 60D56EDE
P 9750 1450
F 0 "#J7" H 9750 1300 50  0000 R CNN
F 1 "AudioJack1" H 48570 7324 50  0000 R CNN
F 2 "" H 19500 2900 50  0001 C CNN
F 3 "~" H 58500 8700 50  0001 C CNN
F 4 "281738" H 58500 8700 50  0001 C CNN "Jameco"
	1    9750 1450
	-1   0    0    1   
$EndComp
Wire Wire Line
	9350 2950 9350 2700
Wire Wire Line
	9350 2700 9750 2700
Wire Wire Line
	9350 2350 9550 2350
Wire Wire Line
	9550 2350 9550 2600
Wire Wire Line
	9550 2600 9750 2600
Wire Wire Line
	8150 2950 8150 2850
Wire Wire Line
	8150 2850 8650 2850
Wire Wire Line
	8650 2450 8250 2450
$Comp
L power:+5V #PWR0112
U 1 1 60D59970
P 9000 2450
F 0 "#PWR0112" H 9000 2300 50  0001 C CNN
F 1 "+5V" H 9015 2623 50  0000 C CNN
F 2 "" H 9000 2450 50  0001 C CNN
F 3 "" H 9000 2450 50  0001 C CNN
	1    9000 2450
	1    0    0    -1  
$EndComp
Text GLabel 7400 3150 0    50   Input ~ 0
Relay
Wire Wire Line
	7400 3150 7450 3150
Wire Wire Line
	7750 3150 7850 3150
Wire Wire Line
	8150 3350 8150 3400
Text GLabel 4000 5350 2    50   Input ~ 0
Laser
Text GLabel 8000 5100 0    50   Input ~ 0
LED2
Text GLabel 8000 4500 0    50   Input ~ 0
LED1
Wire Wire Line
	6600 5450 6600 5300
Wire Wire Line
	8700 5100 8750 5100
$Comp
L Device:R R2
U 1 1 60DAFDF2
P 8250 5100
F 0 "R2" V 8457 5100 50  0000 C CNN
F 1 "220" V 8366 5100 50  0000 C CNN
F 2 "Resistor_THT:R_Box_L13.0mm_W4.0mm_P9.00mm" V 8180 5100 50  0001 C CNN
F 3 "~" H 8250 5100 50  0001 C CNN
	1    8250 5100
	0    -1   -1   0   
$EndComp
$Comp
L Device:R R1
U 1 1 60DD8F32
P 8250 4500
F 0 "R1" V 8457 4500 50  0000 C CNN
F 1 "220" V 8366 4500 50  0000 C CNN
F 2 "Resistor_THT:R_Box_L13.0mm_W4.0mm_P9.00mm" V 8180 4500 50  0001 C CNN
F 3 "~" H 8250 4500 50  0001 C CNN
	1    8250 4500
	0    -1   -1   0   
$EndComp
Wire Wire Line
	8700 4500 8750 4500
Wire Wire Line
	3250 5100 3250 5150
Wire Wire Line
	3550 5350 3600 5350
Wire Wire Line
	3900 5350 4000 5350
Wire Wire Line
	3250 5600 3250 5550
$Comp
L MCU_Microchip_ATtiny:ATtiny24A-PU U1
U 1 1 60EB9EDF
P 5450 3700
F 0 "U1" H 4920 3746 50  0000 R CNN
F 1 "ATtiny24A-PU" H 4920 3655 50  0000 R CNN
F 2 "Package_DIP:DIP-14_W7.62mm" H 5450 3700 50  0001 C CIN
F 3 "http://ww1.microchip.com/downloads/en/DeviceDoc/doc8183.pdf" H 5450 3700 50  0001 C CNN
F 4 "ATTINY24A-PU-ND" H 5450 3700 50  0001 C CNN "Digikey"
	1    5450 3700
	1    0    0    -1  
$EndComp
Text GLabel 6400 3100 2    50   Input ~ 0
Relay
Wire Wire Line
	8000 5100 8100 5100
Wire Wire Line
	8000 4500 8100 4500
Text GLabel 8000 5700 0    50   Input ~ 0
LED3
$Comp
L Device:R R3
U 1 1 60EC46AE
P 8250 5700
F 0 "R3" V 8457 5700 50  0000 C CNN
F 1 "220" V 8366 5700 50  0000 C CNN
F 2 "Resistor_THT:R_Box_L13.0mm_W4.0mm_P9.00mm" V 8180 5700 50  0001 C CNN
F 3 "~" H 8250 5700 50  0001 C CNN
	1    8250 5700
	0    -1   -1   0   
$EndComp
Wire Wire Line
	8700 5700 8750 5700
Wire Wire Line
	8750 5700 8750 6000
Wire Wire Line
	8000 5700 8100 5700
Wire Wire Line
	8750 4500 8750 5100
Connection ~ 8750 5700
Connection ~ 8750 5100
Wire Wire Line
	8750 5100 8750 5700
$Comp
L Device:R R10
U 1 1 60EC8D20
P 3250 4700
F 0 "R10" H 3180 4654 50  0000 R CNN
F 1 "100" H 3180 4745 50  0000 R CNN
F 2 "Resistor_THT:R_Box_L13.0mm_W4.0mm_P9.00mm" V 3180 4700 50  0001 C CNN
F 3 "~" H 3250 4700 50  0001 C CNN
	1    3250 4700
	-1   0    0    1   
$EndComp
Wire Wire Line
	3250 4850 3250 5000
$Comp
L Device:R R11
U 1 1 60EC9D62
P 8250 2050
F 0 "R11" H 8180 2004 50  0000 R CNN
F 1 "100" H 8180 2095 50  0000 R CNN
F 2 "Resistor_THT:R_Box_L13.0mm_W4.0mm_P9.00mm" V 8180 2050 50  0001 C CNN
F 3 "~" H 8250 2050 50  0001 C CNN
	1    8250 2050
	-1   0    0    1   
$EndComp
Wire Wire Line
	8250 2200 8250 2450
Wire Wire Line
	8250 1900 8250 1750
Wire Wire Line
	5450 2700 5450 2800
Wire Wire Line
	5450 4600 5450 4650
Text GLabel 6400 3500 2    50   Input ~ 0
Button
Text GLabel 6400 3200 2    50   Input ~ 0
LED1
Text GLabel 6400 3300 2    50   Input ~ 0
LED2
Text GLabel 6400 3400 2    50   Input ~ 0
LED3
Text GLabel 6400 3700 2    50   Input ~ 0
Laser
Text GLabel 6400 3600 2    50   Input ~ 0
Photo
Wire Wire Line
	6050 3100 6400 3100
Wire Wire Line
	6050 3200 6400 3200
Wire Wire Line
	6050 3300 6400 3300
Wire Wire Line
	6050 3400 6400 3400
Wire Wire Line
	6050 3600 6400 3600
Wire Wire Line
	6050 3500 6400 3500
Wire Wire Line
	6050 3700 6400 3700
NoConn ~ 8650 2350
NoConn ~ 8650 2950
$Comp
L power:GNDREF #PWR0116
U 1 1 60EE41B9
P 4800 1650
F 0 "#PWR0116" H 4800 1400 50  0001 C CNN
F 1 "GNDREF" H 4805 1477 50  0001 C CNN
F 2 "" H 4800 1650 50  0001 C CNN
F 3 "" H 4800 1650 50  0001 C CNN
	1    4800 1650
	1    0    0    -1  
$EndComp
$Comp
L power:GNDREF #PWR0109
U 1 1 60EE43B6
P 5450 4700
F 0 "#PWR0109" H 5450 4450 50  0001 C CNN
F 1 "GNDREF" H 5455 4527 50  0001 C CNN
F 2 "" H 5450 4700 50  0001 C CNN
F 3 "" H 5450 4700 50  0001 C CNN
	1    5450 4700
	1    0    0    -1  
$EndComp
$Comp
L power:GNDREF #PWR0105
U 1 1 60EE4523
P 6100 5750
F 0 "#PWR0105" H 6100 5500 50  0001 C CNN
F 1 "GNDREF" H 6105 5577 50  0001 C CNN
F 2 "" H 6100 5750 50  0001 C CNN
F 3 "" H 6100 5750 50  0001 C CNN
	1    6100 5750
	1    0    0    -1  
$EndComp
$Comp
L power:GNDREF #PWR0111
U 1 1 60EE4577
P 8750 6000
F 0 "#PWR0111" H 8750 5750 50  0001 C CNN
F 1 "GNDREF" H 8755 5827 50  0001 C CNN
F 2 "" H 8750 6000 50  0001 C CNN
F 3 "" H 8750 6000 50  0001 C CNN
	1    8750 6000
	1    0    0    -1  
$EndComp
$Comp
L power:GNDREF #PWR0114
U 1 1 60EE45CB
P 3250 5600
F 0 "#PWR0114" H 3250 5350 50  0001 C CNN
F 1 "GNDREF" H 3255 5427 50  0001 C CNN
F 2 "" H 3250 5600 50  0001 C CNN
F 3 "" H 3250 5600 50  0001 C CNN
	1    3250 5600
	1    0    0    -1  
$EndComp
$Comp
L power:GNDREF #PWR0101
U 1 1 60EE49CC
P 8150 3400
F 0 "#PWR0101" H 8150 3150 50  0001 C CNN
F 1 "GNDREF" H 8155 3227 50  0001 C CNN
F 2 "" H 8150 3400 50  0001 C CNN
F 3 "" H 8150 3400 50  0001 C CNN
	1    8150 3400
	1    0    0    -1  
$EndComp
$Comp
L power:GNDREF #PWR0102
U 1 1 60EE4B28
P 3000 3450
F 0 "#PWR0102" H 3000 3200 50  0001 C CNN
F 1 "GNDREF" H 3005 3277 50  0001 C CNN
F 2 "" H 3000 3450 50  0001 C CNN
F 3 "" H 3000 3450 50  0001 C CNN
	1    3000 3450
	1    0    0    -1  
$EndComp
$Comp
L power:+BATT #PWR0108
U 1 1 60EE5D36
P 3400 1050
F 0 "#PWR0108" H 3400 900 50  0001 C CNN
F 1 "+BATT" H 3415 1223 50  0000 C CNN
F 2 "" H 3400 1050 50  0001 C CNN
F 3 "" H 3400 1050 50  0001 C CNN
	1    3400 1050
	1    0    0    -1  
$EndComp
$Comp
L Connector_Generic:Conn_01x02 J1
U 1 1 60EE5F35
P 3000 1250
F 0 "J1" H 2920 1467 50  0000 C CNN
F 1 "battery" H 2920 1376 50  0000 C CNN
F 2 "Connector_Molex:Molex_KK-254_AE-6410-02A_1x02_P2.54mm_Vertical" H 3000 1250 50  0001 C CNN
F 3 "~" H 3000 1250 50  0001 C CNN
F 4 "232266" H 3000 1250 50  0001 C CNN "Jameco"
	1    3000 1250
	-1   0    0    -1  
$EndComp
Wire Wire Line
	3200 1250 3350 1250
Wire Wire Line
	3350 1250 3350 1050
Wire Wire Line
	3200 1350 3200 1500
Wire Wire Line
	3350 1050 3400 1050
Wire Wire Line
	3200 1500 4250 1500
Connection ~ 3400 1050
Wire Wire Line
	3400 1050 4250 1050
Text Notes 6750 3150 0    50   ~ 0
D0
Text Notes 6750 3250 0    50   ~ 0
D1
Text Notes 6750 3350 0    50   ~ 0
D2
Text Notes 6750 3450 0    50   ~ 0
D3
Text Notes 6750 3550 0    50   ~ 0
D4
Text Notes 6750 3650 0    50   ~ 0
A5
Text Notes 6750 3750 0    50   ~ 0
D6
$Comp
L Connector_Generic:Conn_01x02 J2
U 1 1 60FC6197
P 9950 2700
F 0 "J2" H 9870 2917 50  0000 C CNN
F 1 "Conn_01x02" H 9870 2826 50  0000 C CNN
F 2 "Connector_Molex:Molex_KK-254_AE-6410-02A_1x02_P2.54mm_Vertical" H 9950 2700 50  0001 C CNN
F 3 "~" H 9950 2700 50  0001 C CNN
F 4 "232266" H 9950 2700 50  0001 C CNN "Jameco"
	1    9950 2700
	1    0    0    1   
$EndComp
$Comp
L Connector:Conn_01x02_Female #J5
U 1 1 60FC6F53
P 9150 1550
F 0 "#J5" H 9044 1225 50  0000 C CNN
F 1 "jack" H 9044 1316 50  0000 C CNN
F 2 "" H 9150 1550 50  0001 C CNN
F 3 "~" H 9150 1550 50  0001 C CNN
F 4 "234798, 234923" H 9150 1550 50  0001 C CNN "Jameco"
	1    9150 1550
	-1   0    0    1   
$EndComp
Wire Wire Line
	9350 1450 9550 1450
Wire Wire Line
	9350 1550 9550 1550
Wire Notes Line
	10450 1100 10450 1900
Wire Notes Line
	10450 1900 8750 1900
Wire Notes Line
	8750 1900 8750 1100
Wire Notes Line
	8750 1100 10450 1100
Text Notes 10400 1850 2    50   ~ 0
Jack mounted to enclosure \n(no board footprint)
Text Notes 9100 1600 2    50   ~ 0
to\nJ2
$Comp
L Connector:Conn_01x02_Female #J6
U 1 1 60FD39F9
P 1500 4150
F 0 "#J6" H 1400 3950 50  0000 L CNN
F 1 "Conn_01x02_Female" H 1100 3850 50  0000 L CNN
F 2 "" H 1500 4150 50  0001 C CNN
F 3 "~" H 1500 4150 50  0001 C CNN
F 4 "234798, 234923" H 1500 4150 50  0001 C CNN "Jameco"
	1    1500 4150
	1    0    0    -1  
$EndComp
$Comp
L Device:Laserdiode_1C2A #LD1
U 1 1 60FD4484
P 1200 3950
F 0 "#LD1" V 1104 4098 50  0000 L CNN
F 1 "Laser Module" V 1195 4098 50  0000 L CNN
F 2 "" H 1100 3925 50  0001 C CNN
F 3 "~" H 1230 3750 50  0001 C CNN
F 4 "2305815" H 1200 3950 50  0001 C CNN "Jameco"
	1    1200 3950
	0    1    1    0   
$EndComp
Wire Wire Line
	1300 4150 1200 4150
Wire Wire Line
	1200 3650 1100 3650
Wire Wire Line
	1100 3650 1100 4250
Wire Wire Line
	1100 4250 1300 4250
Text Notes 650  4800 0    50   ~ 0
Laser module mounted off board\n(no footprint)
Text Notes 1550 4250 0    50   ~ 0
to\nJ1
Wire Notes Line
	600  3600 600  4900
Wire Notes Line
	600  4900 1950 4900
Wire Notes Line
	600  3600 1950 3600
Wire Notes Line
	1950 3600 1950 4900
$Comp
L Connector:Conn_01x02_Female #J4
U 1 1 60FE0494
P 1550 900
F 0 "#J4" H 1450 700 50  0000 L CNN
F 1 "Conn_01x02_Female" H 1150 600 50  0000 L CNN
F 2 "" H 1550 900 50  0001 C CNN
F 3 "~" H 1550 900 50  0001 C CNN
F 4 "234798, 234923" H 1550 900 50  0001 C CNN "Jameco"
	1    1550 900 
	1    0    0    -1  
$EndComp
$Comp
L Device:Battery #BT1
U 1 1 60FE0BA0
P 1050 950
F 0 "#BT1" H 800 1050 50  0000 L CNN
F 1 "9V Battery" H 600 950 50  0000 L CNN
F 2 "" V 1050 1010 50  0001 C CNN
F 3 "~" V 1050 1010 50  0001 C CNN
F 4 "216452" H 1050 950 50  0001 C CNN "Jameco"
	1    1050 950 
	1    0    0    -1  
$EndComp
Wire Wire Line
	1350 750  1350 900 
Wire Wire Line
	1050 1150 1350 1150
Wire Wire Line
	1350 1150 1350 1000
Text Notes 1600 1000 0    50   ~ 0
to\nJ3
Text Notes 600  1500 0    50   ~ 0
Battery snap connector\n(no footprint)
Wire Notes Line
	1950 550  550  550 
Wire Notes Line
	550  1550 1950 1550
Text Notes 3550 6000 2    50   ~ 10
Laser Control
Text Notes 3300 3700 2    50   ~ 10
Beam Sensor
Text Notes 6500 6050 2    50   ~ 10
Mode Select Button
Text Notes 9750 5150 2    50   ~ 10
Mode Indicator LEDs
Text Notes 9450 3450 2    50   ~ 10
Relay Control
Text Notes 4050 1750 2    50   ~ 10
Voltage Source
$Comp
L power:+5V #PWR0113
U 1 1 61000F9B
P 8250 1750
F 0 "#PWR0113" H 8250 1600 50  0001 C CNN
F 1 "+5V" H 8265 1923 50  0000 C CNN
F 2 "" H 8250 1750 50  0001 C CNN
F 3 "" H 8250 1750 50  0001 C CNN
	1    8250 1750
	1    0    0    -1  
$EndComp
Wire Wire Line
	1050 750  1350 750 
Wire Notes Line
	1950 550  1950 1550
Wire Notes Line
	550  550  550  1550
Wire Wire Line
	4250 1050 4500 1050
Wire Wire Line
	6050 3800 6200 3800
Wire Wire Line
	6200 3800 6200 4000
Wire Wire Line
	6200 4650 5450 4650
Connection ~ 5450 4650
Wire Wire Line
	5450 4650 5450 4700
Wire Wire Line
	6050 4000 6200 4000
Connection ~ 6200 4000
Wire Wire Line
	6200 4000 6200 4100
Wire Wire Line
	6050 4100 6200 4100
Connection ~ 6200 4100
Wire Wire Line
	6200 4100 6200 4200
Wire Wire Line
	6050 4200 6200 4200
Connection ~ 6200 4200
Wire Wire Line
	6200 4200 6200 4650
$Comp
L Device:R R12
U 1 1 60FD3BE1
P 6550 4300
F 0 "R12" V 6450 4350 50  0000 R CNN
F 1 "10k" V 6650 4350 50  0000 R CNN
F 2 "Resistor_THT:R_Box_L13.0mm_W4.0mm_P9.00mm" V 6480 4300 50  0001 C CNN
F 3 "~" H 6550 4300 50  0001 C CNN
	1    6550 4300
	0    1    1    0   
$EndComp
Wire Wire Line
	6050 4300 6400 4300
$Comp
L power:+5V #PWR0115
U 1 1 60FD5B92
P 6800 4300
F 0 "#PWR0115" H 6800 4150 50  0001 C CNN
F 1 "+5V" H 6815 4473 50  0000 C CNN
F 2 "" H 6800 4300 50  0001 C CNN
F 3 "" H 6800 4300 50  0001 C CNN
	1    6800 4300
	1    0    0    -1  
$EndComp
Wire Wire Line
	6700 4300 6800 4300
$EndSCHEMATC
